…
```
## `summarise()` ungrouping output (override with `.groups` argument)
```

```r
totalperday
```

```
## # A tibble: 61 x 2
##    Date       `Total Steps`
##    <date>             <dbl>
##  1 2012-10-01            NA
##  2 2012-10-02           126
##  3 2012-10-03         11352
##  4 2012-10-04         12116
##  5 2012-10-05         13294
##  6 2012-10-06         15420
##  7 2012-10-07         11015
##  8 2012-10-08            NA
##  9 2012-10-09         12811
## 10 2012-10-10          9900
## # ... with 51 more rows
```
…
```
## `summarise()` ungrouping output (override with `.groups` argument)
```

```r
timeseries
```

```
## # A tibble: 288 x 2
##     Time `Mean Steps`
##    <dbl>        <dbl>
##  1     0       1.72  
##  2     5       0.340 
##  3    10       0.132 
##  4    15       0.151 
##  5    20       0.0755
##  6    25       2.09  
##  7    30       0.528 
##  8    35       0.868 
##  9    40       0     
## 10    45       1.47  
## # ... with 278 more rows
```
…
```
## The following objects are masked from 'package:base':
## 
##     date, intersect, setdiff, union
```

```r
weekdays<-data_replacedNA %>%
  mutate(Day=day(as.POSIXct(date))) %>%
  mutate(WeekDayEnd=as.factor(ifelse(Day==6|Day==7, "Weekend", "Weekday")))
weekdays
```

```
## # A tibble: 17,568 x 5
##    steps date       interval   Day WeekDayEnd
##    <dbl> <date>        <dbl> <int> <fct>     
##  1     0 2012-10-01        0     1 Weekday   
##  2     0 2012-10-01        5     1 Weekday   
##  3     0 2012-10-01       10     1 Weekday   
##  4     0 2012-10-01       15     1 Weekday   
##  5     0 2012-10-01       20     1 Weekday   
##  6     0 2012-10-01       25     1 Weekday   
##  7     0 2012-10-01       30     1 Weekday   
##  8     0 2012-10-01       35     1 Weekday   
##  9     0 2012-10-01       40     1 Weekday   
## 10     0 2012-10-01       45     1 Weekday   
## # ... with 17,558 more rows
```
…
